TidyTuesday Week 34 - Refugees
…
 1  2022  5930
 2  2021  5587
 3  2020  5491
 4  2019  5439
 5  2018  5264
 6  2017  5125
 7  2015  4938
 8  2016  4927
 9  2014  4746
10  2013  4568
11  2012  4364
12  2010  4216
13  2011  4214

# A tibble: 210 × 2
   coo_name                   n
   <chr>                  <int>
 1 Syrian Arab Rep.        1352
 2 Somalia                 1345
 3 Iraq                    1281
 4 Dem. Rep. of the Congo  1269
 5 Sudan                   1228
 6 Afghanistan             1154
 7 Eritrea                 1088
 8 Iran (Islamic Rep. of)  1079
 9 Stateless               1075
10 Ethiopia                1066
# ℹ 200 more rows

# A tibble: 189 × 2
   coa_name                                                 n
   <chr>                                                <int>
 1 United States of America                              2305
 2 Canada                                                2212
 3 Germany                                               1931
 4 United Kingdom of Great Britain and Northern Ireland  1778
 5 France                                                1593
 6 Sweden                                                1546
 7 Australia                                             1545
 8 Switzerland                                           1397
 9 Italy                                                 1375
10 Belgium                                               1374
# ℹ 179 more rows

# A tibble: 5,466 × 2
   refugees     n
      <dbl> <int>
 1        0 13264
 2        5 10012
 3        6  1993
 4        7  1807
 5        8  1491
 6        9  1271
 7       10  1074
 8       11   910
 9       12   814
10       13   781
# ℹ 5,456 more rows

# A tibble: 3,870 × 2
   asylum_seekers     n
            <dbl> <int>
 1              0 18455
 2              5  9654
 3              6  1824
 4              7  1443
 5             10  1388
 6              8  1131
 7              9  1009
 8             11   877
 9             12   776
10             13   742
# ℹ 3,860 more rows

# A tibble: 596 × 2
   returned_refugees     n
               <dbl> <int>
 1                 0 63258
 2                 5   303
 3                 6    75
 4                 7    45
 5                 8    42
 6                10    33
 7                 9    30
 8                12    28
 9                11    21
10                15    20
# ℹ 586 more rows

# A tibble: 351 × 2
      idps     n
     <dbl> <int>
 1       0 64429
 2   71500     5
 3  247090     4
 4   24000     3
 5   78948     3
 6   96305     3
 7  134430     3
 8  174000     3
 9 1133000     3
10 2967500     3
# ℹ 341 more rows
…
