TidyTuesday Week 11: Fiscal Sponsors
…
  select(project_types) %>%
  separate_rows(project_types, sep = "\\|") %>%
  mutate(
    project_types = str_remove(project_types, ":.+"),
    project_types = str_trim(project_types),
    project_types = str_to_lower(project_types),
    project_types = str_replace(project_types, "/|and", " & ")
  ) %>%
  drop_na() %>%
  count(project_types, sort = TRUE) %>%
  mutate(project_types = if_else(n < 10, "other", project_types)) %>%
  group_by(project_types) %>%
  summarise(n = sum(n))

# A tibble: 29 × 2
   project_types                        n
   <chr>                            <int>
 1 arts  &  culture                   240
 2 bill paying                         10
 3 bookkeeping & accounting            10
 4 children, youth  &  families       197
 5 disaster relief                    107
 6 drug treatment                      72
 7 economic development               155
 8 education                          205
 9 environment & sustainable growth   167
10 faith-based & religious             65
# ℹ 19 more rows
…
